[
    {
        "nome": "RTR - Administração de Bancos",
        "duracao": "2h",
        "hora": "8h30min",
        "data": "02/08/2018",
        "participantes": "André Reis;Brena Carolina;Juliana Costa;Marcia Andrade;Marlisson Costa;Vanessa Ramos",
        "analistas": "Marcos Lontra; Nilceia Rosa",
        "local": "ÁREA DE LAZER - SALA 02"
    },
    {
        "nome": "RTR - Dados Mestres",
        "duracao": "2h",
        "hora": "10h30min",
        "data": "02/08/2018",
        "participantes": "André Reis;Brena Carolina;Juliana Costa;Marcia Andrade;Marlisson Costa;Vanessa Ramos",
        "analistas": "Marcos Lontra; Nilceia Rosa",
        "local": "ÁREA DE LAZER - SALA 02"
    },
    {
        "nome": "RTR - Análise de Resultado",
        "duracao": "3h",
        "hora": "14h",
        "data": "02/08/2018",
        "participantes": "André Reis;Dacio Teles;Edecio Junior;Everton Souza;Josineide Romão;Moacy Filho;Rafaela Cristina Augusto;Rodrigo Silva",
        "analistas": "Marisa Elias",
        "local": "ÁREA DE LAZER - SALA 03"
    },
    {
        "nome": "OTC - Distribuição - Fretes",
        "duracao": "4h",
        "hora": "8h30min",
        "data": "02/08/2018",
        "participantes": "Anderson Gil;Bruno Menezes;Everton Santos;Ismael Silveira;Luzia Nascimento;Marlon Prata",
        "analistas": "Carina Cosseau; Waldir Oliveira; João Sallesse",
        "local": "ÁREA DE LAZER - SALA 04"
    },
    {
        "nome": "PTP - Gestão de Estoque e Inventário - Tipos de Estoque + Movimentações de estoque + Movimentações internas entre depósitos + reservas + tipos de estoque",
        "duracao": "4h",
        "hora": "8h30min",
        "data": "03/08/2018",
        "participantes": "Andreza França;Cleudson Silva;Ivaneide Jesus;Sandra Cecilia;Acácio Santos;André Reis;Evanderlan Silva;Jorge Alves;Evandro Santos;Josenias Nascimento;Edecio Junior;Acioli Fontes;Daniela Porfiria;Ildemar Borges;Jacqueline Carvalho;José Jadiel dos Santos;Ricardo Lisboa;Rosemeire N. Prata;Marileide Souza",
        "analistas": "Eliane Riboli; Jivago Ribas; Pedro Soares",
        "local": "ÁREA DE LAZER - SALA 01"
    },
    {
        "nome": "OTC - Integrações",
        "duracao": "4h",
        "hora": "8h30min",
        "data": "03/08/2018",
        "participantes": "Everton Santos;Marlon Prata",
        "analistas": "Carina Cosseau; Waldir Oliveira; João Sallesse",
        "local": "ÁREA DE LAZER - SALA 02"
    },
    {
        "nome": "RTR - Previsão de Tesouraria",
        "duracao": "2h",
        "hora": "8h30min",
        "data": "03/08/2018",
        "participantes": "André Reis;Brena Carolina;Juliana Costa;Marcia Andrade;Marlisson Costa;Vanessa Ramos",
        "analistas": "Marcos Lontra; Nilceia Rosa",
        "local": "ÁREA DE LAZER - SALA 03"
    },
    {
        "nome": "PTP - Gestão de Estoque e Inventário - Bloqueios de material + interfaces de suprimentos com qualidade e produção + inventário",
        "duracao": "4h",
        "hora": "8h30min",
        "data": "06/08/2018",
        "participantes": "Acioli Fontes;Acácio Santos;André Reis;Cleudson Silva;Diego Oliveira;Edecio Junior;Evanderlan Silva;Evandro Santos;Josenias Nascimento;José Carlos Teixeira;Ildemar Borges;Ivaneide Jesus;Rosemeire Sommer;Sandra Cecilia;Vanunia Pereira",
        "analistas": "Eliane Riboli; Jivago Ribas; Pedro Soares",
        "local": "ÁREA DE LAZER - SALA 01"
    },
    {
        "nome": "SIPAT 2018",
        "duracao": "1h",
        "hora": "15h",
        "data": "06/08/2018",
        "participantes": "Palestra Livre",
        "local": "ÁREA DE LAZER - SALA 01"
    },
    {
        "nome": "RTR - Contabilidade de Fornecedores - Adiantamento de Fornecedor, Entrada, Alteração, Exibição e Estorno de Documentos, Nota de Crédito, Compensação de Documentos e Anulação de Compensação e Estorno",
        "duracao": "3h",
        "hora": "14h",
        "data": "06/08/2018",
        "participantes": "André Reis;Brena Carolina;Daniela Porfiria;Evandro Santos;Juliana Costa;Marlisson Costa;Marcia Andrade;Marcia Janaina;Paula Santos;Sônia Paixão;Vanessa Ramos",
        "analistas": "Marcos Lontra;Nilceia Rosa",
        "local": "ÁREA DE LAZER - SALA 02"
    },
    {
        "nome": "HODIE - Upgrade de Versão Cadastros Básico",
        "duracao": "3h",
        "hora": "9h",
        "data": "06/08/2018",
        "participantes": "Juliana Santana;Uihara Galindo;Anderson Gil;Raiane Rodrigues;Kathle Morais;Bruna Oliveira",
        "analistas": "Karintia Luisa Arruda Silva",
        "local": "ÁREA DE LAZER - SALA 04"
    },
    {
        "nome": "HODIE - Treinamento (Ocorrências)",
        "duracao": "4h",
        "hora": "13h",
        "data": "06/08/2018",
        "participantes": "Uihara Galindo;Kathle Morais;Bruna Oliveira;Mônica Oliveira",
        "analistas": "Karintia Luisa Arruda Silva",
        "local": "ÁREA DE LAZER - SALA 04"
    },
    {
        "nome": "PTP - Outros Processos de Adm Materiais",
        "duracao": "3h",
        "hora": "14h",
        "data": "06/08/2018",
        "participantes": "Acácio Santos;Acioli Fontes;Cleudson Silva;Diego Oliveira;Evanderlan Silva;Evandro Santos;Ildemar Borges;Ivaneide Jesus;José Carlos Teixeira;Josenias Nascimento;Ricardo Lisboa;Rosemeire N. Prata;Rosemeire Sommer;Sandra Cecilia;Edecio Junior;Marileide Souza",
        "analistas": "Eliane Riboli;Jivago Ribas;Mauricio Perez",
        "local": "AUDITÓRIO PCM"
    },
    {
        "nome": "PTP - Recebimento de materiais e serviços",
        "duracao": "4h",
        "hora": "8h30min",
        "data": "07/08/2018",
        "participantes": "Acácio Santos;Acioli Fontes;Andreza França;Brena Carolina;Cleudson Silva;Daniela Porfiria;Diego Oliveira;Edecio Junior;Evanderlan Silva;Ildemar Borges;Ivaneide Jesus;Jacqueline Carvalho;Jorge Alves;José Carlos Teixeira;José Jadiel dos Santos;Josenias Nascimento;Juliana Costa;Marcia Andrade;Marlisson Costa;Rosemeire N. Prata;Rosemeire Sommer;Sandra Cecilia;Sônia Paixão;Vanusia Pereira;Vanessa Ramos;Marileide Souza;Ricardo Lisboa",
        "analistas": "Eliane Riboli;Jivago Ribas;Mauricio Perez",
        "local": "ÁREA DE LAZER - SALA 01"
    },
    {
        "nome": "SIPAT 2018",
        "duracao": "1h",
        "hora": "15h",
        "data": "07/08/2018",
        "participantes": "Palestra Livre",
        "local": "ÁREA DE LAZER - SALA 01"
    },
    {
        "nome": "RTR - Contabilidade de Fornecedores - Recebimento Manual, Programa de Pagamento e Relatórios",
        "duracao": "3h",
        "hora": "14h",
        "data": "07/08/2018",
        "participantes": "André Reis;Brena Carolina;Daniela Porfiria;Evandro Santos;Juliana Costa;Marlisson Costa;Marcia Andrade;Marcia Janaina;Paula Santos;Sônia Paixão;Vanessa Ramos",
        "analistas": "Marcos Lontra;Nilceia Rosa",
        "local": "ÁREA DE LAZER - SALA 02"
    },
    {
        "nome": "CHANGE",
        "duracao": "3h",
        "hora": "14h",
        "data": "07/08/2018",
        "participantes": "Daine Santos;Elton Amorim;José Marcone Dos Santos;Lilian Oliveira Dos Anjos;Maicon Michel Santos Dantas;Romildo De Souza;Simone Dos Santos Viana;Tiara Daline Costa Santana",
        "analistas": "Kelly;Silvana",
        "local": "ÁREA DE LAZER - SALA 03"
    },
    {
        "nome": "HODIE - Treinamento (Embarques)",
        "duracao": "3h",
        "hora": "9h",
        "data": "07/08/2018",
        "participantes": "Uihara Galindo;Expedição Jav;Expedição IVL;Expedição Alimenticias;Expedição Sucos;Expedição Copos;Juliana Santana",
        "analistas": "Karintia Luisa Arruda Silva",
        "local": "ÁREA DE LAZER - SALA 04"
    },
    {
        "nome": "HODIE - Treinamento (Baixa de Notas)",
        "duracao": "4h",
        "hora": "13h",
        "data": "07/08/2018",
        "participantes": "Uihara Galindo;Raiane Rodrigues;Andrea Oliveira;Analistas de Frotas;Roterizadores",
        "analistas": "Karintia Luisa Arruda Silva",
        "local": "ÁREA DE LAZER - SALA 04"
    },
    {
        "nome": "PRODUTTARE - Seminário de Produtividade",
        "duracao": "4h",
        "hora": "8h",
        "data": "08/08/2018",
        "analistas": "Jorge Piola",
        "local": "ÁREA DE LAZER - SALA 01"
    },
    {
        "nome": "SIPAT 2018",
        "duracao": "1h",
        "hora": "15h",
        "data": "08/08/2018",
        "participantes": "Palestra Livre",
        "local": "ÁREA DE LAZER - SALA 02"
    },
    {
        "nome": "CHANGE",
        "duracao": "3h",
        "hora": "8h30min",
        "data": "08/08/2018",
        "participantes": "Marcia Janaina;Anderson Gil;Bruno Oliveira;Elio Souza;Everton Santos;Ismael Silveira;Maycon;Monica Vieira;Monteiro",
        "analistas": "Kelly;Silvana",
        "local": "ÁREA DE LAZER - SALA 03"
    },
    {
        "nome": "CHANGE",
        "duracao": "3h",
        "hora": "14h",
        "data": "08/08/2018",
        "participantes": "André Reis;Brena Sousa;Daniela Porfíria;Jacqueline Ribeiro;José Jadiel;Márcia Cristina;Paula Santos;Rafaela Cristina;Rodrigo Silva;Sonia Paixão",
        "analistas": "Kelly;Silvana",
        "local": "ÁREA DE LAZER - SALA 03"
    },
    {
        "nome": "HODIE - Treinamento (Relatórios Gerenciais)",
        "duracao": "3h",
        "hora": "9h",
        "data": "08/08/2018",
        "participantes": "Juliana Santana;Uihara Galindo;Anderson Gil",
        "analistas": "Karintia Luisa Arruda Silva",
        "local": "ÁREA DE LAZER - SALA 04"
    },
    {
        "nome": "HODIE - Treinamento (Upgrade 4.0 Dúvidas)",
        "duracao": "4h",
        "hora": "13h",
        "data": "08/08/2018",
        "participantes": "Uihara Galindo;Logística",
        "analistas": "Karintia Luisa Arruda Silva",
        "local": "ÁREA DE LAZER - SALA 04"
    },
    {
        "nome": "PTP - Integrações",
        "duracao": "4h",
        "hora": "8h30min",
        "data": "08/08/2018",
        "participantes": "Edecio Junior;José Carlos Teixeira;SAGA;Josenias Nascimento;Marlon Prata",
        "analistas": "Eliane Riboli;Jivago Ribas;Mauricio Perez",
        "local": "AUDITÓRIO PCM"
    },
    {
        "nome": "PTP - Analiticos",
        "duracao": "4h",
        "hora": "8h30min",
        "data": "09/08/2018",
        "participantes": "André Reis;Andreza França;Cleudson Silva;Daniela Porfiria;Evanderlan Silva;Evandro Santos;Edecio Junior;Josenias Nascimento;Dacio Teles;Ivaneide Jesus;Jorge Alves;Josineide Romão;Rosemeire N. Prata;Rosemeire Sommer;Everton Souza;Rafaela Cristina Augusto;Acácio Santos;Jacqueline Carvalho;Marlon Prata;José Jadiel dos Santos;Rodrigo Silva;Moacy Filho;Sandra Cecilia;Marileide Souza",
        "analistas": "Eliane Riboli;Jivago Ribas;Mauricio Perez",
        "local": "ÁREA DE LAZER - SALA 01"
    },
    {
        "nome": "PRODUTTARE - Seminário de Produtividade",
        "duracao": "4h",
        "hora": "13h",
        "data": "09/08/2018",
        "analistas": "Jorge Piola",
        "local": "ÁREA DE LAZER - SALA 01"
    },
    {
        "nome": "SIPAT 2018",
        "duracao": "1h",
        "hora": "15h",
        "data": "09/08/2018",
        "participantes": "Palestra Livre",
        "local": "ÁREA DE LAZER - SALA 02"
    },
    {
        "nome": "CHANGE",
        "duracao": "3h",
        "hora": "8h30min",
        "data": "09/08/2018",
        "participantes": "Brena Sousa;Juliana Santos;Márcia Cristina;Marlisson Costa",
        "analistas": "Kelly;Silvana",
        "local": "ÁREA DE LAZER - SALA 03"
    },
    {
        "nome": "CHANGE",
        "duracao": "3h",
        "hora": "14h",
        "data": "09/08/2018",
        "participantes": "Rosemeire N. Prata;Alessandra Santos;Andreza França;Ayla Neres;Carlos Teixeira;Daiane Santos;Evanderlan Silva;Everton Andrade;Ildemar Borges;Josenias Nascimento;Márcio Gledston;Moacy Filho;Paulo Sampaio;Rodrigo Santana;Rosemeire Sommer;Sandra Cecilia;Silvio Silva",
        "analistas": "Kelly;Silvana",
        "local": "ÁREA DE LAZER - SALA 03"
    },
    {
        "nome": "HODIE - Treinamento (APP Motorista)",
        "duracao": "2h",
        "hora": "10h",
        "data": "09/08/2018",
        "participantes": "Uihara Galindo;Deise;Cristiane;Bruno;Ricardo Viana;Carlos;Denisson;Motoristas disponíveis da equipe",
        "analistas": "Karintia Luisa Arruda Silva",
        "local": "ÁREA DE LAZER - SALA 04"
    },
    {
        "nome": "HODIE - Treinamento (APP Motorista)",
        "duracao": "2h",
        "hora": "13h",
        "data": "09/08/2018",
        "participantes": "Uihara Galindo;Vanessa;Raiane Santos;Ana Caludia;Cleidiana;Amanda;Juliana Santana;Herbert;Motoristas disponíveis da equipe",
        "analistas": "Karintia Luisa Arruda Silva",
        "local": "ÁREA DE LAZER - SALA 04"
    },
    {
        "nome": "HODIE - Treinamento (Comercial)",
        "duracao": "2h",
        "hora": "15h",
        "data": "09/08/2018",
        "participantes": "Uihara Galindo;Regiane Santana;Analistas Comerciais;Juliana Santana",
        "analistas": "Karintia Luisa Arruda Silva",
        "local": "ÁREA DE LAZER - SALA 04"
    },
    {
        "nome": "SOFICOM TDF",
        "duracao": "3h",
        "hora": "14h",
        "data": "09/08/2018",
        "participantes": "Acácio Santos;André Reis;Cleudson Silva;Evanderlan Silva;Evandro Santos;Ivaneide Jesus;José Jadiel dos Santos;Raphael Silva;Rosemeire N. Prata;Simone Viana;Sônia Paixão;Marileide Souza;Janaina;Luan Fonseca;Paula Santos;Roseane;Silvio;Jacqueline Carvalho;Marileide Souza",
        "analistas": "Cicero Grokoski",
        "local": "AUDITÓRIO PCM"
    },
    {
        "nome": "PTP - Compras Operacionais - Pedidos de Commodities",
        "duracao": "4h",
        "hora": "8h30min",
        "data": "10/08/2018",
        "participantes": "Andreza França;Cleudson Silva;Ivaneide Jesus;Sandra Cecilia;Evanderlan Silva;Jorge Alves;Acácio Santos;Evandro Santos;Josenias Nascimento;Rosemeire N. Prata;Rosemeire Sommer;Edecio Junior;Marileide Souza",
        "analistas": "Eliane Riboli; Jivago Ribas; Pedro Soares",
        "local": "AUDITÓRIO PCM"
    },
    {
        "nome": "PRODUTTARE - Seminário de Produtividade",
        "duracao": "4h",
        "hora": "8h",
        "data": "10/08/2018",
        "analistas": "Jorge Piola",
        "local": "ÁREA DE LAZER - SALA 01"
    },
    {
        "nome": "SIPAT 2018",
        "duracao": "1h",
        "hora": "15h",
        "data": "10/08/2018",
        "participantes": "Palestra Livre",
        "local": "ÁREA DE LAZER - SALA 01"
    },
    {
        "nome": "CHANGE",
        "duracao": "3h",
        "hora": "8h30min",
        "data": "10/08/2018",
        "participantes": "Paulo Sampaio;Ana;Carlos Teixeira;Eupídio;Everton Andrade;Gabriela;Joari;Márcio Gledston;Rodrigo Santana;Tatiane",
        "analistas": "Kelly;Silvana",
        "local": "ÁREA DE LAZER - SALA 03"
    },
    {
        "nome": "HODIE - Treinamento (Transportadoras)",
        "duracao": "3h",
        "hora": "9h",
        "data": "10/08/2018",
        "participantes": "Transportadoras Externas;Motoristas;Analistas de frotas;Roterizadores",
        "analistas": "Karintia Luisa Arruda Silva",
        "local": "ÁREA DE LAZER - SALA 04"
    },
    {
        "nome": "SOLMAN - Treinamento KT",
        "duracao": "3h30min",
        "hora": "9h",
        "data": "13/08/2018",
        "participantes": "André Reis;Brena Carolina;Daiane Santos;Marcia Janaina;Paulo Sampaio;Rosemeire N. Prata;Edécio Júnior;Flavia Nunes;Josenias Nascimento;Marlon Prata;Paulo Almério;Paulo Antinhane;Amanda Alves",
        "analistas": "SAP",
        "local": "Aguardando definição"
    },
    {
        "nome": "SOLMAN - Treinamento KT",
        "duracao": "3h30min",
        "hora": "13h",
        "data": "13/08/2018",
        "participantes": "André Reis;Brena Carolina;Daiane Santos;Marcia Janaina;Paulo Sampaio;Rosemeire N. Prata;Edécio Júnior;Flavia Nunes;Josenias Nascimento;Marlon Prata;Paulo Almério;Paulo Antinhane;Amanda Alves",
        "analistas": "SAP",
        "local": "Aguardando definição"
    },
    {
        "nome": "CROSS - Dados Mestres Fiscais",
        "duracao": "2h",
        "hora": "8h30min",
        "data": "13/08/2018",
        "participantes": "Acácio Santos;André Reis;Cleudson Silva;Ivaneide Jesus;Marileide Souza;Paula Santos;Marileide Souza",
        "analistas": "Carina Cosseau;Eliane Riboli;Jivago Ribas;Waldir Oliveira",
        "local": "ÁREA DE LAZER - SALA 01"
    },
    {
        "nome": "CROSS - Determinação de Impostos",
        "duracao": "2h",
        "hora": "10h30min",
        "data": "13/08/2018",
        "participantes": "Acácio Santos;André Reis;Cleudson Silva;Ivaneide Jesus;Marileide Souza;Paula Santos;Marileide Souza",
        "analistas": "Carina Cosseau;Eliane Riboli;Jivago Ribas;Waldir Oliveira",
        "local": "ÁREA DE LAZER - SALA 01"
    },
    {
        "nome": "SOLMAN - Treinamento KT",
        "duracao": "3h30min",
        "hora": "9h",
        "data": "14/08/2018",
        "participantes": "André Reis;Brena Carolina;Daiane Santos;Marcia Janaina;Paulo Sampaio;Rosemeire N. Prata;Edécio Júnior;Flavia Nunes;Josenias Nascimento;Marlon Prata;Paulo Almério;Paulo Antinhane;Amanda Alves",
        "analistas": "SAP",
        "local": "Aguardando definição"
    },
    {
        "nome": "SOLMAN - Treinamento KT",
        "duracao": "3h30min",
        "hora": "13h",
        "data": "14/08/2018",
        "participantes": "André Reis;Brena Carolina;Daiane Santos;Marcia Janaina;Paulo Sampaio;Rosemeire N. Prata;Edécio Júnior;Flavia Nunes;Josenias Nascimento;Marlon Prata;Paulo Almério;Paulo Antinhane;Amanda Alves",
        "analistas": "SAP",
        "local": "Aguardando definição"
    },
    {
        "nome": "SOLMAN - Treinamento KT",
        "duracao": "3h30min",
        "hora": "9h",
        "data": "15/08/2018",
        "participantes": "André Reis;Brena Carolina;Daiane Santos;Marcia Janaina;Paulo Sampaio;Rosemeire N. Prata;Edécio Júnior;Flavia Nunes;Josenias Nascimento;Marlon Prata;Paulo Almério;Paulo Antinhane;Amanda Alves",
        "analistas": "SAP",
        "local": "Aguardando definição"
    },
    {
        "nome": "SOLMAN - Treinamento KT",
        "duracao": "3h30min",
        "hora": "13h",
        "data": "15/08/2018",
        "participantes": "André Reis;Brena Carolina;Daiane Santos;Marcia Janaina;Paulo Sampaio;Rosemeire N. Prata;Edécio Júnior;Flavia Nunes;Josenias Nascimento;Marlon Prata;Paulo Almério;Paulo Antinhane; Amanda Alves",
        "analistas": "SAP",
        "local": "Aguardando definição"
    },
    {
        "nome": "SOLMAN - Treinamento KT",
        "duracao": "3h30min",
        "hora": "9h",
        "data": "16/08/2018",
        "participantes": "André Reis;Brena Carolina;Daiane Santos;Marcia Janaina;Paulo Sampaio;Rosemeire N. Prata;Edécio Júnior;Flavia Nunes;Josenias Nascimento;Marlon Prata;Paulo Almério;Paulo Antinhane;Amanda Alves",
        "analistas": "SAP",
        "local": "Aguardando definição"
    },
    {
        "nome": "SOLMAN - Treinamento KT",
        "duracao": "3h30min",
        "hora": "13h",
        "data": "16/08/2018",
        "participantes": "André Reis;Brena Carolina;Daiane Santos;Marcia Janaina;Paulo Sampaio;Rosemeire N. Prata;Edécio Júnior;Flavia Nunes;Josenias Nascimento;Marlon Prata;Paulo Almério;Paulo Antinhane;Amanda Alves",
        "analistas": "SAP",
        "local": "Aguardando definição"
    },
    {
        "nome": "SOLMAN - Treinamento KT",
        "duracao": "3h30min",
        "hora": "9h",
        "data": "17/08/2018",
        "participantes": "André Reis;Brena Carolina;Daiane Santos;Marcia Janaina;Paulo Sampaio;Rosemeire N. Prata;Edécio Júnior;Flavia Nunes;Josenias Nascimento;Marlon Prata;Paulo Almério;Paulo Antinhane;Amanda Alves",
        "analistas": "SAP",
        "local": "Aguardando definição"
    }
]